<?xml version="1.0" encoding="utf-8"?>
<!-- Generator: Adobe Illustrator 19.2.1, SVG Export Plug-In . SVG Version: 6.00 Build 0)  -->
<svg version="1.1" xmlns="http://www.w3.org/2000/svg" xmlns:xlink="http://www.w3.org/1999/xlink" x="0px" y="0px"
	 viewBox="0 0 400 400" style="enable-background:new 0 0 400 400;" xml:space="preserve">
<style type="text/css">
	.st0{display:none;}
	.st1{display:inline;}
	.st2{display:inline;fill:#4CAF50;}
	.st3{display:inline;fill:#FFFFFF;}
	.st4{fill:#4CAF50;}
	.st5{fill:#FFFFFF;}
	.st6{display:inline;fill:#FFC108;}
	.st7{display:inline;fill:#F44436;}
</style>
<g id="Layer_8" class="st0">
	<rect x="0.6" y="1.1" class="st1" width="398.9" height="398.9"/>
</g>
<g id="Layer_1" class="st0">
	<circle class="st2" cx="199.6" cy="199.6" r="199.6"/>
	<polygon class="st3" points="357,114.4 327.3,84.7 156.8,255.2 72,170.3 42.3,200 127.1,284.9 127.1,284.9 156.8,314.6 
		186.5,284.9 186.5,284.9 	"/>
</g>
<g id="Layer_2">
	<path class="st4" d="M199.6,0C89.4,0,0,89.4,0,199.6s89.4,199.6,199.6,199.6V0z"/>
	<path class="st5" d="M199.6,0c110.3,0,199.6,89.4,199.6,199.6s-89.4,199.6-199.6,199.6V0z"/>
	<polygon class="st5" points="357,114.4 327.3,84.7 156.8,255.2 72,170.3 42.3,200 127.1,284.9 127.1,284.9 156.8,314.6 
		186.5,284.9 186.5,284.9 	"/>
	<polygon class="st4" points="199.6,271.8 357,114.4 327.3,84.7 199.6,212.4 	"/>
</g>
<g id="Layer_4" class="st0">
	<rect x="174.3" class="st2" width="46" height="3.7"/>
	<rect x="167.7" y="396.3" class="st2" width="46" height="3.7"/>
</g>
<g id="Layer_3" class="st0">
	<polygon class="st6" points="200,19.6 400,366 0,366 	"/>
	<g class="st1">
		<rect x="180.3" y="113" class="st5" width="39.3" height="157.7"/>
		<rect x="180.3" y="289.3" class="st5" width="39.3" height="39.3"/>
	</g>
</g>
<g id="Layer_5" class="st0">
	<polygon class="st6" points="200,19.6 0,366 200,366 	"/>
	<polygon class="st3" points="200,19.6 400,366 200,366 	"/>
	<rect x="180.3" y="113" class="st3" width="19.7" height="157.7"/>
	<rect x="200" y="113" class="st6" width="19.7" height="157.7"/>
	<rect x="180.3" y="289.3" class="st3" width="19.7" height="39.3"/>
	<rect x="200" y="289.3" class="st6" width="19.7" height="39.3"/>
</g>
<g id="Layer_6" class="st0">
	<polygon class="st7" points="282.8,0.6 399.7,117.4 399.7,282.6 282.8,399.4 117.6,399.4 0.8,282.6 0.8,117.4 117.6,0.6 	"/>
	<g class="st1">
		<rect x="180.3" y="92.2" class="st5" width="39.3" height="157.7"/>
		<rect x="180.3" y="268.5" class="st5" width="39.3" height="39.3"/>
	</g>
</g>
<g id="Layer_7" class="st0">
	<polygon class="st7" points="199.8,0.5 117.4,0.5 0.6,117.3 0.6,282.5 117.4,399.3 199.8,399.3 	"/>
	<polygon class="st3" points="199.8,0.5 282.2,0.5 399,117.3 399,282.5 282.2,399.3 199.8,399.3 	"/>
	<rect x="180.1" y="92.1" class="st3" width="19.9" height="157.7"/>
	<rect x="199.7" y="92.1" class="st7" width="19.9" height="157.7"/>
	<rect x="180.1" y="268.4" class="st3" width="19.7" height="39.3"/>
	<rect x="199.8" y="268.4" class="st7" width="19.7" height="39.3"/>
</g>
</svg>
